<?xml version="1.0" encoding="UTF-8" standalone="no"?>
<!-- Created with Inkscape (http://www.inkscape.org/) -->

<svg
   xmlns:dc="http://purl.org/dc/elements/1.1/"
   xmlns:cc="http://creativecommons.org/ns#"
   xmlns:rdf="http://www.w3.org/1999/02/22-rdf-syntax-ns#"
   xmlns:svg="http://www.w3.org/2000/svg"
   xmlns="http://www.w3.org/2000/svg"
   xmlns:sodipodi="http://sodipodi.sourceforge.net/DTD/sodipodi-0.dtd"
   xmlns:inkscape="http://www.inkscape.org/namespaces/inkscape"
   width="29.351112mm"
   height="29.351112mm"
   viewBox="0 0 104 103.99999"
   id="svg2"
   version="1.1"
   inkscape:version="0.91 r13725"
   sodipodi:docname="drawing2.svg">
  <defs
     id="defs4" />
  <sodipodi:namedview
     id="base"
     pagecolor="#ffffff"
     bordercolor="#666666"
     borderopacity="1.0"
     inkscape:pageopacity="0.0"
     inkscape:pageshadow="2"
     inkscape:zoom="1.4"
     inkscape:cx="184.22879"
     inkscape:cy="43.147817"
     inkscape:document-units="px"
     inkscape:current-layer="layer1"
     showgrid="false"
     fit-margin-top="0"
     fit-margin-left="0"
     fit-margin-right="0"
     fit-margin-bottom="0"
     showguides="false"
     inkscape:guide-bbox="true"
     inkscape:snap-bbox="true"
     inkscape:bbox-paths="true"
     inkscape:bbox-nodes="true"
     inkscape:snap-bbox-edge-midpoints="true"
     inkscape:snap-bbox-midpoints="true"
     inkscape:object-paths="true"
     inkscape:snap-intersection-paths="true"
     inkscape:object-nodes="true"
     inkscape:snap-smooth-nodes="true"
     inkscape:snap-midpoints="true"
     inkscape:snap-object-midpoints="true"
     inkscape:window-width="1920"
     inkscape:window-height="1027"
     inkscape:window-x="-8"
     inkscape:window-y="-8"
     inkscape:window-maximized="1">
    <inkscape:grid
       type="xygrid"
       id="grid4136"
       originx="-107.96428"
       originy="-809.99986" />
    <sodipodi:guide
       position="42.035717,-4.3123481e-007"
       orientation="0,1"
       id="guide4188" />
    <sodipodi:guide
       position="52.035716,54.999993"
       orientation="0,1"
       id="guide4190" />
    <sodipodi:guide
       position="607.03567,14.999998"
       orientation="0,1"
       id="guide4192" />
    <sodipodi:guide
       position="97.035712,39.999995"
       orientation="0,1"
       id="guide4194" />
  </sodipodi:namedview>
  <metadata
     id="metadata7">
    <rdf:RDF>
      <cc:Work
         rdf:about="">
        <dc:format>image/svg+xml</dc:format>
        <dc:type
           rdf:resource="http://purl.org/dc/dcmitype/StillImage" />
        <dc:title></dc:title>
      </cc:Work>
    </rdf:RDF>
  </metadata>
  <g
     inkscape:label="Layer 1"
     inkscape:groupmode="layer"
     id="layer1"
     transform="translate(-107.96429,-138.36221)">
    <path
       style="fill:none;fill-rule:evenodd;stroke:#2e3436;stroke-width:4;stroke-linecap:butt;stroke-linejoin:miter;stroke-miterlimit:4;stroke-dasharray:none;stroke-opacity:1"
       d="m 304.74402,187.3622 0,55"
       id="path4203"
       inkscape:connector-curvature="0" />
    <path
       style="opacity:1;fill:#ef2929;fill-opacity:1;stroke:#c4a000;stroke-width:0;stroke-linecap:square;stroke-linejoin:bevel;stroke-miterlimit:4;stroke-dasharray:none;stroke-dashoffset:0;stroke-opacity:1"
       d="m 267.50001,187.3622 a 27.499994,27.499992 0 0 0 -27.5,27.5 27.499994,27.499992 0 0 0 27.5,27.5 27.499994,27.499992 0 0 0 24.49219,-15 l -4.62695,0 a 23.5,23.499998 0 0 1 -19.86524,11 23.5,23.499998 0 0 1 -23.5,-23.5 23.5,23.499998 0 0 1 23.5,-23.5 23.5,23.499998 0 0 1 19.88868,11 l 4.57617,0 a 27.499994,27.499992 0 0 0 -24.46485,-15 z"
       id="path4215"
       inkscape:connector-curvature="0" />
    <g
       id="g4355"
       transform="translate(-446.75124,0)">
      <path
         transform="scale(1,-1)"
         d="m 853.00017,-222.3609 a 18.000166,18.000168 0 0 1 -17.99509,18.00017 18.000166,18.000168 0 0 1 -18.00524,-17.99001"
         sodipodi:open="true"
         sodipodi:end="3.1410284"
         sodipodi:start="0"
         sodipodi:ry="18.000168"
         sodipodi:rx="18.000166"
         sodipodi:cy="-222.3609"
         sodipodi:cx="835"
         sodipodi:type="arc"
         id="path4239-1"
         style="opacity:1;fill:none;fill-opacity:1;stroke:#2e3436;stroke-width:3.99963999;stroke-linecap:square;stroke-linejoin:bevel;stroke-miterlimit:4;stroke-dasharray:none;stroke-dashoffset:0;stroke-opacity:1" />
      <path
         inkscape:connector-curvature="0"
         id="path4256"
         d="m 817,242.36221 0,-40.00001"
         style="fill:none;fill-rule:evenodd;stroke:#2e3436;stroke-width:4;stroke-linecap:butt;stroke-linejoin:miter;stroke-miterlimit:4;stroke-dasharray:none;stroke-opacity:1" />
      <path
         inkscape:connector-curvature="0"
         id="path4258"
         d="m 853,222.3622 0,20"
         style="fill:none;fill-rule:evenodd;stroke:#2e3436;stroke-width:4;stroke-linecap:butt;stroke-linejoin:miter;stroke-miterlimit:4;stroke-dasharray:none;stroke-opacity:1" />
    </g>
    <ellipse
       style="opacity:1;fill:none;fill-opacity:1;stroke:#2e3436;stroke-width:3.99963999;stroke-linecap:square;stroke-linejoin:bevel;stroke-miterlimit:4;stroke-dasharray:none;stroke-dashoffset:0;stroke-opacity:1"
       id="path4239-4"
       cx="439.00055"
       cy="222.3622"
       rx="18.000179"
       ry="18.000181" />
    <ellipse
       style="opacity:1;fill:none;fill-opacity:1;stroke:#2e3436;stroke-width:3.99963999;stroke-linecap:square;stroke-linejoin:bevel;stroke-miterlimit:4;stroke-dasharray:none;stroke-dashoffset:0;stroke-opacity:1"
       id="path4239-4-3"
       cx="337.49582"
       cy="222.3622"
       rx="18.000179"
       ry="18.000181" />
    <path
       style="fill:none;fill-rule:evenodd;stroke:#2e3436;stroke-width:4;stroke-linecap:butt;stroke-linejoin:miter;stroke-miterlimit:4;stroke-dasharray:none;stroke-opacity:1"
       d="m 585.24814,187.3622 0,55"
       id="path4203-2"
       inkscape:connector-curvature="0" />
    <path
       style="opacity:1;fill:#2e3436;fill-opacity:1;stroke:none;stroke-width:4;stroke-linecap:square;stroke-linejoin:bevel;stroke-miterlimit:4;stroke-dasharray:none;stroke-dashoffset:0;stroke-opacity:1"
       d="m 674.00001,187.36314 0,55 4,0 0,-50 22,14 22,-14 0,50 4,0 0,-55 -4.03125,0 -21.96875,15 -21.96875,-15 -4.03125,0 z"
       id="rect4409"
       inkscape:connector-curvature="0" />
    <g
       id="g4484"
       transform="translate(17.000179,9.3407293e-6)">
      <ellipse
         ry="18.000181"
         rx="18.000179"
         cy="222.3622"
         cx="740"
         id="path4239-4-7-9"
         style="opacity:1;fill:none;fill-opacity:1;stroke:#2e3436;stroke-width:3.99963999;stroke-linecap:square;stroke-linejoin:bevel;stroke-miterlimit:4;stroke-dasharray:none;stroke-dashoffset:0;stroke-opacity:1" />
      <path
         inkscape:connector-curvature="0"
         id="path4434"
         d="m 758,222.3622 0,20"
         style="fill:none;fill-rule:evenodd;stroke:#2e3436;stroke-width:4;stroke-linecap:butt;stroke-linejoin:miter;stroke-miterlimit:4;stroke-dasharray:none;stroke-opacity:1" />
    </g>
    <g
       id="g4355-2"
       transform="translate(-27.999837,0.011463)">
      <path
         transform="scale(1,-1)"
         d="m 853.00017,-222.3609 a 18.000166,18.000168 0 0 1 -17.99509,18.00017 18.000166,18.000168 0 0 1 -18.00524,-17.99001"
         sodipodi:open="true"
         sodipodi:end="3.1410284"
         sodipodi:start="0"
         sodipodi:ry="18.000168"
         sodipodi:rx="18.000166"
         sodipodi:cy="-222.3609"
         sodipodi:cx="835"
         sodipodi:type="arc"
         id="path4239-1-4"
         style="opacity:1;fill:none;fill-opacity:1;stroke:#2e3436;stroke-width:3.99963999;stroke-linecap:square;stroke-linejoin:bevel;stroke-miterlimit:4;stroke-dasharray:none;stroke-dashoffset:0;stroke-opacity:1" />
      <path
         inkscape:connector-curvature="0"
         id="path4256-4"
         d="m 817,242.36221 0,-40.00001"
         style="fill:none;fill-rule:evenodd;stroke:#2e3436;stroke-width:4;stroke-linecap:butt;stroke-linejoin:miter;stroke-miterlimit:4;stroke-dasharray:none;stroke-opacity:1" />
      <path
         inkscape:connector-curvature="0"
         id="path4258-4"
         d="m 853,222.3622 0,20"
         style="fill:none;fill-rule:evenodd;stroke:#2e3436;stroke-width:4;stroke-linecap:butt;stroke-linejoin:miter;stroke-miterlimit:4;stroke-dasharray:none;stroke-opacity:1" />
    </g>
    <g
       id="g4355-2-9"
       transform="matrix(-1,0,0,-1,1692,444.72441)">
      <path
         transform="scale(1,-1)"
         d="m 853.00017,-222.3609 a 18.000166,18.000168 0 0 1 -17.99509,18.00017 18.000166,18.000168 0 0 1 -18.00524,-17.99001"
         sodipodi:open="true"
         sodipodi:end="3.1410284"
         sodipodi:start="0"
         sodipodi:ry="18.000168"
         sodipodi:rx="18.000166"
         sodipodi:cy="-222.3609"
         sodipodi:cx="835"
         sodipodi:type="arc"
         id="path4239-1-4-9"
         style="opacity:1;fill:none;fill-opacity:1;stroke:#2e3436;stroke-width:3.99963999;stroke-linecap:square;stroke-linejoin:bevel;stroke-miterlimit:4;stroke-dasharray:none;stroke-dashoffset:0;stroke-opacity:1" />
      <path
         inkscape:connector-curvature="0"
         id="path4256-4-3"
         d="m 817,242.36221 0,-40.00001"
         style="fill:none;fill-rule:evenodd;stroke:#2e3436;stroke-width:4;stroke-linecap:butt;stroke-linejoin:miter;stroke-miterlimit:4;stroke-dasharray:none;stroke-opacity:1" />
      <path
         inkscape:connector-curvature="0"
         id="path4258-4-8"
         d="m 853,222.3622 0,20"
         style="fill:none;fill-rule:evenodd;stroke:#2e3436;stroke-width:4;stroke-linecap:butt;stroke-linejoin:miter;stroke-miterlimit:4;stroke-dasharray:none;stroke-opacity:1" />
    </g>
    <g
       transform="translate(167.00018,9.3407293e-6)"
       id="g4484-3">
      <ellipse
         ry="18.000181"
         rx="18.000179"
         cy="222.3622"
         cx="740"
         id="path4239-4-7-9-2"
         style="opacity:1;fill:none;fill-opacity:1;stroke:#2e3436;stroke-width:3.99963999;stroke-linecap:square;stroke-linejoin:bevel;stroke-miterlimit:4;stroke-dasharray:none;stroke-dashoffset:0;stroke-opacity:1" />
      <path
         inkscape:connector-curvature="0"
         id="path4434-9"
         d="m 758,222.3622 0,20"
         style="fill:none;fill-rule:evenodd;stroke:#2e3436;stroke-width:4;stroke-linecap:butt;stroke-linejoin:miter;stroke-miterlimit:4;stroke-dasharray:none;stroke-opacity:1" />
    </g>
    <path
       style="fill:none;fill-rule:evenodd;stroke:#2e3436;stroke-width:4;stroke-linecap:butt;stroke-linejoin:miter;stroke-miterlimit:4;stroke-dasharray:none;stroke-opacity:1"
       d="m 941,187.3622 0,55"
       id="path4203-2-5"
       inkscape:connector-curvature="0" />
    <path
       style="opacity:1;fill:#2e3436;fill-opacity:1;stroke:#2e3436;stroke-width:0;stroke-linecap:square;stroke-linejoin:bevel;stroke-miterlimit:4;stroke-dasharray:none;stroke-dashoffset:0;stroke-opacity:1"
       d="m 617.99994,202.36221 a 19.999994,19.999994 0 0 0 -20,20 19.999994,19.999994 0 0 0 20,20 19.999994,19.999994 0 0 0 17.85742,-11 l -4.63086,0 a 15.999996,15.999996 0 0 1 -13.22656,7 15.999996,15.999996 0 0 1 -16,-16 15.999996,15.999996 0 0 1 16,-16 15.999996,15.999996 0 0 1 13.20898,7 l 4.62696,0 a 19.999994,19.999994 0 0 0 -17.83594,-11 z"
       id="path4212"
       inkscape:connector-curvature="0" />
    <path
       style="opacity:1;fill:#ef2929;fill-opacity:1;stroke:#c4a000;stroke-width:0;stroke-linecap:square;stroke-linejoin:bevel;stroke-miterlimit:4;stroke-dasharray:none;stroke-dashoffset:0;stroke-opacity:1"
       d="m 497.25234,188.3622 a 27.499994,27.499992 0 0 0 -27.49999,27.5 27.499994,27.499992 0 0 0 27.49999,27.5 27.499994,27.499992 0 0 0 24.49219,-15 l -4.62694,0 a 23.5,23.499998 0 0 1 -19.86525,11 23.5,23.499998 0 0 1 -23.49999,-23.5 23.5,23.499998 0 0 1 23.49999,-23.5 23.5,23.499998 0 0 1 19.88868,11 l 4.57617,0 a 27.499994,27.499992 0 0 0 -24.46485,-15 z"
       id="path4215-5"
       inkscape:connector-curvature="0" />
    <g
       id="g4484-35"
       transform="translate(-187.50366,1.8488691e-4)">
      <ellipse
         ry="18.000181"
         rx="18.000179"
         cy="222.3622"
         cx="740"
         id="path4239-4-7-9-6"
         style="opacity:1;fill:none;fill-opacity:1;stroke:#2e3436;stroke-width:3.99963999;stroke-linecap:square;stroke-linejoin:bevel;stroke-miterlimit:4;stroke-dasharray:none;stroke-dashoffset:0;stroke-opacity:1" />
      <path
         inkscape:connector-curvature="0"
         id="path4434-2"
         d="m 758,222.3622 0,20"
         style="fill:none;fill-rule:evenodd;stroke:#2e3436;stroke-width:4;stroke-linecap:butt;stroke-linejoin:miter;stroke-miterlimit:4;stroke-dasharray:none;stroke-opacity:1" />
    </g>
    <g
       style="display:inline"
       id="g4338"
       transform="translate(-46.535175,-593.4995)">
      <circle
         transform="matrix(0.49999977,0.86602554,0.86602554,-0.49999977,0,0)"
         r="50.001026"
         cy="-213.09686"
         cx="782.09393"
         id="path4138-3-3-9-3-2"
         style="display:inline;opacity:1;fill:#2e3436;fill-opacity:1;stroke:#39b392;stroke-width:4.00008202;stroke-linecap:round;stroke-linejoin:bevel;stroke-miterlimit:4;stroke-dasharray:none;stroke-dashoffset:0;stroke-opacity:1" />
      <path
         sodipodi:nodetypes="csc"
         inkscape:connector-curvature="0"
         id="path4266-2-7-6-7"
         d="m 254.67236,797.14777 c -26.54608,9.18162 -52.82869,18.66911 -76.4272,9.80729 -7.0468,-2.64625 -13.73771,-6.98238 -20.01952,-12.43773"
         style="display:inline;fill:none;fill-rule:evenodd;stroke:#cc0000;stroke-width:4;stroke-linecap:butt;stroke-linejoin:miter;stroke-miterlimit:4;stroke-dasharray:none;stroke-opacity:1" />
      <path
         sodipodi:nodetypes="cc"
         inkscape:connector-curvature="0"
         id="path4140-3-5-2-7-0"
         d="m 186.27256,738.91464 c 58.67732,55.97403 15.33992,93.82218 15.33992,93.82218"
         style="display:inline;fill:none;fill-rule:evenodd;stroke:#39b392;stroke-width:4;stroke-linecap:square;stroke-linejoin:miter;stroke-miterlimit:4;stroke-dasharray:none;stroke-opacity:1" />
      <circle
         transform="matrix(-0.69465836,-0.71933981,-0.71933981,0.69465836,0,0)"
         r="50"
         cy="395.97278"
         cx="-707.30951"
         id="path4138-3-3-0-5-9"
         style="display:inline;opacity:1;fill:none;fill-opacity:1;stroke:#39b392;stroke-width:4;stroke-linecap:square;stroke-linejoin:bevel;stroke-miterlimit:4;stroke-dasharray:none;stroke-dashoffset:0;stroke-opacity:1" />
    </g>
  </g>
</svg>

